{
    "title": "ConsultedStudents.Active",
    "model": "Instructors/me/consultedStudents",
    "searchExpression": "indexof(student/studentIdentifier, '${text}') ge 0 or indexof(student/person/familyName, '${text}') ge 0 or indexof(student/person/givenName, '${text}') ge 0 or indexof(student/department/name, '${text}') ge 0 or indexof(student/studentStatus/name, '${text}') ge 0",
    "selectable": true,
    "multipleSelect": true,
    "columns": [
      {
        "name": "id",
        "property": "id",
        "hidden": true
      },
      {
        "name": "student/id",
        "property": "student",
        "hidden": true
      },
      {
        "name": "student/user",
        "property": "studentUser",
        "hidden": true
      },
      {
        "name": "student/id",
        "property": "studentId",
        "formatter": "ButtonFormatter",
        "formatString": "#/consultedStudents/${studentId}/details",
        "className": "text-center",
        "formatOptions": {
          "buttonContent": "<i class=\"far fa-eye text-indigo\"></i>",
          "buttonClass": "btn btn-default"
        }
      },
      {
        "name": "student/studentIdentifier",
        "property": "studentIdentifier",
        "title": "ConsultedStudents.StudentIdentifier",
        "hidden": false
      },
      {
        "name": "student/person/familyName",
        "property": "familyName",
        "title": "ConsultedStudents.FullName",
        "formatter": "TemplateFormatter",
        "formatString": "${familyName} ${givenName}"
      },
      {
        "name": "student/person/givenName",
        "property": "givenName",
        "hidden": true
      },
      {
        "name": "student/studentStatus/alternateName",
        "property": "studentStatus",
        "title": "ConsultedStudents.Status",
        "formatter": "TranslationFormatter",
        "formatString": "StudentStatuses.${value}"
      },
      {
        "name":"student/semester",
        "property": "semester",
        "title":"ConsultedStudents.Semester"
      },
      {
        "virtual": true,
        "name": "student/department/name",
        "property": "studentDepartment",
        "title":"ConsultedStudents.Department",
        "formatter": "TemplateFormatter",
        "formatString": "${student.department?.locale?.name || student.department?.name}"
      },
      {
        "name":"fromYear/alternateName",
        "property": "fromYear",
        "title":"ConsultedStudents.FromYear"
      },
      {
        "name": "startDate",
        "property": "startDate",
        "title": "ConsultedStudents.StartDate",
        "formatter": "DateTimeFormatter",
        "formatString": "shortDate"
      }
    ],
    "criteria": [
      {
        "name": "studyProgram",
        "filter": "(indexof(student/studyProgram/abbreviation, '${value}') ge 0 )",
        "type": "text"
      },
      {
        "name": "studentName",
        "filter": "(indexof(student/person/familyName, '${value}') ge 0 or indexof(student/person/givenName, '${value}') ge 0 or indexof(student/studentIdentifier, '${value}') ge 0)",
        "type": "text"
      },
      {
        "name": "studentStatus",
        "filter": "(student/studentStatus/alternateName eq '${value}')",
        "type": "text"
      },
      {
        "name": "fromYear",
        "filter": "(fromYear/id eq ${value})",
        "type": "text"
      },
      {
        "name": "toYear",
        "filter": "(toYear/id eq ${value})",
        "type": "text"
      },
      {
        "name": "fromPeriod",
        "filter": "(fromPeriod/alternateName eq '${value}')",
        "type": "text"
      },
      {
        "name": "semester",
        "filter": "(student/semester eq ${value})",
        "type": "text"
      },
      {
        "name": "studentDepartment",
        "filter": "(student/department eq '${value}')",
        "type": "text"
      }
    ],
    "defaults": {
      "filter": "(active eq true)",
      "expand": "student($expand=department($expand=locale))"
    }
}
  