{
  "model": "Instructors/Me/postThesis",
  "settings": {
    "i18n": {
      "el": {
        "Set the name of this thesis": "Ορίστε την ονομασία της πτυχιακής εργασίας αυτής",
        "Select one the available thesis types.": "Επιλέξτε έναν από τους διαθέσιμους τύπους εργασίας",
        "Select the department that offers this thesis.": "Ορίστε το τμήμα που προσφέρει την εργασία.",
        "Set the status of the thesis.": "Ορίστε την κατάσταση της εργασίας.",
        "Select the supervising instructor of this thesis": "Επιλέξτε τον επιβλέποντα καθηγητή της εργασίας αυτής",
        "Select the academic period in which the thesis will start.": "Επιλέξτε την ακαδημαϊκή περίοδο που θα ξεκινήσει η εκπόνηση της εργασίας",
        "Select the academic year in which the thesis will start.": "Επιλέξτε το ακαδημαϊκό έτος που θα ξεκινήσει η εκπόνηση της εργασίας",
        "Select the status of the thesis proposal.": "Επιλέξτε την κατάσταση της προτεινόμενης εργασίας",
        "Set the thesis subject": "Ορίστε το γνωστικό αντικείμενο της εργασίας",
        "Set the study level of this thesis proposal": "Ορίστε το επίπεδο σπουδών",
        "Thesis subject": "Γνωστικό αντικείμενο εργασίας", 
        "Thesis proposal status": "Κατάσταση προτεινόμενης εργασίας",
        "Number of students": "Αριθμός φοιτητών",
        "Set the number of students who will be assigned to the thesis.": "Ορίστε τον μέγιστο αριθμό των φοιτητών που θα αναλάβουν την εργασία.",
        "Required Field": "Το πεδίο είναι υποχρεωτικό",
        "Thesis Name": "Θέμα",
        "The number of students who will be assigned to the thesis can be 1 up to 10.": "Μπορείτε να ορίσετε από 1 έως 10 φοιτητές."
      }
    }
  },
  "components": [
    {
      "key": "fieldSet",
      "type": "fieldset",
      "hideLabel": true,
      "input": false,
      "label": "Theses Information",
      "components": [
        {
          "columns": [
            {
              "components": [
                {
                  "label": "Thesis Name",
                  "labelPosition": "top",
                  "widget": {
                    "type": "input"
                  },
                  "validate": {
                    "required": true
                  },
                  "key": "name",
                  "type": "textarea",
                  "input": true,
                  "description": "Set the name of this thesis"
                }
              ],
              "width": 12,
              "offset": 0,
              "push": 0,
              "pull": 0
            }
          ],
          "customClass": "text-dark",
          "hideLabel": true,
          "type": "columns",
          "input": false
        },
        {
          "columns": [
            {
              "components": [
                {
                  "label": "Study Level",
                  "labelPosition": "top",
                  "widget": "choicesjs",
                  "dataSrc": "url",
                  "data": {
                    "url": "StudyLevels/?$select=id,name,alternateName",
                    "headers": []
                  },
                  "template": "<span class='text-wrap'>{{ item.name }}</span>",
                  "selectValues": "value",
                  "validate": {
                    "required": true
                  },
                  "disabled": true,
                  "key": "studyLevel",
                  "idPath": "id",
                  "type": "select",
                  "dataType": "object",
                  "input": true,
                  "disable": "true",
                  "description": "Set the study level of this thesis proposal"
                }
              ],
              "width": 3
            },
            {
              "components": [
                {
                  "type": "select",
                  "label": "Thesis Type",
                  "key": "type",
                  "input": true,
                  "dataSrc": "url",
                  "data": {
                    "url": "ThesisTypes",
                    "headers": []
                  },
                  "template": "<span class='text-wrap'>{{ item.name }}</span>",
                  "selectValues": "value",
                  "dataType": "object",
                  "idPath": "id",
                  "validate": {
                    "required": true
                  },
                  "searchEnabled": false,
                  "description": "Select one the available thesis types."
                }
              ],
              "width": 3,
              "offset": 0,
              "push": 0,
              "pull": 0
            },
            {
              "components": [
                {
                  "label": "Department",
                  "labelPosition": "top",
                  "widget": "choicesjs",
                  "key": "department",
                  "dataSrc": "url",
                  "data": {
                    "url": "Instructors/Me/Classes/?$select=department/id as id,department/locale/name as name,department/currentYear as currentYear,department/locale/inLanguage as lang&$groupby=department/id,department/locale/name,department/currentYear,department/locale/inLanguage&$filter=department/locale/inLanguage eq lang()&limit=100&skip=0",
                    "headers": []
                  },
                  "template": "<span class='text-wrap'>{{ item.locale.name || item.name }}</span>",
                  "idPath":"id",
                  "selectValues": "value",
                  "type": "select",
                  "input": true,
                  "validate": {
                    "required": true
                  },
                  "disabled": true,
                  "lazyLoad": true,
                  "description": "Select the department that offers this thesis."
                }
              ],
              "width": 6,
              "offset": 0,
              "push": 0,
              "pull": 0
            }
          ],
          "customClass": "text-dark",
          "type": "columns",
          "input": false
        },
        {
          "columns": [
            {
              "components": [
                {
                  "label": "Number of students",
                  "requireDecimal": false,
                  "inputFormat": "plain",
                  "key": "totalStudents",
                  "validate": {
                    "required": true,
                    "integer": true,
                    "custom": "valid = (/^(10|[1-9])$/.test(input)) ? true : 'The number of students who will be assigned to the thesis can be 1 up to 10.';"
                  },
                  "type": "number",
                  "input": true,
                  "description": "Set the number of students who will be assigned to the thesis."
                }
              ],
              "width": 4
            },
            {
              "components": [
                {
                  "label": "Academic Year",
                  "labelPosition": "top",
                  "widget": "choicesjs",
                  "dataSrc": "url",
                  "customConditional": "show = !!(data.department && data.department.id)",
                  "data": {
                    "url": "/AcademicYears?$select=id,name&$filter=id ge {{data.department.currentYear || 0}}&$orderby=id desc",
                    "headers": []
                  },
                  "dataType": "object",
                  "idPath": "id",
                  "redrawOn": "department",
                  "lazyLoad": true,
                  "clearOnRefresh": true,
                  "validate": {
                    "required": true
                  },
                  "disabled": true,
                  "template": "<span>{{ item.name }}</span>",
                  "selectThreshold": 0.3,
                  "key": "startYear",
                  "type": "select",
                  "selectValues": "value",
                  "input": true,
                  "description": "Select the academic year in which the thesis will start.",
                  "searchFields": [
                    "id",
                    "name"
                  ]
                }

              ],
              "width": 4
            },
            {
              "components": [
                {
                  "label": "Period",
                  "labelPosition": "top",
                  "widget": "choicesjs",
                  "dataSrc": "url",
                  "data": {
                    "url": "AcademicPeriods/?$select=id,name&$expand=locale",
                    "headers": []
                  },
                  "searchFields": [
                    "id",
                    "name"
                  ],
                  "template": "<span class='text-wrap'>{{ item.name }}</span>",
                  "selectValues": "value",
                  "key": "startPeriod",
                  "type": "select",
                  "disabled": true,
                  "customConditional": "show = !!(data.department && data.department.id)",
                  "input": true,
                  "validate": {
                    "required": true
                  },
                  "description": "Select the academic period in which the thesis will start."
                }
              ],
              "width": 4
            }
          ],
          "customClass": "text-dark",
          "type": "columns",
          "input": false
        },
        {
          "columns": [
            {
              "components": [
                {
                  "label": "Thesis proposal status",
                  "labelPosition": "top",
                  "widget": "choicesjs",
                  "dataSrc": "url",
                  "data": {
                    "url": "ThesisStatuses/?$filter=alternateName eq 'completed' or alternateName eq 'cancelled' or alternateName eq 'potential'",
                    "headers": []
                  },
                  "template": "<span class='text-wrap'>{{ item.locale.name || item.name }}</span>",
                  "selectValues": "value",
                  "key": "status",
                  "dataType": "object",
                  "idPath": "id",
                  "type": "select",
                  "input": true,
                  "searchEnabled": false,
                  "lazyLoad": true,
                  "description": "Select the status of the thesis proposal.",
                  "customConditional": "show = !!data.id"
                }
              ],
              "width": 6
            }
          ],
          "customClass": "text-dark",
          "type": "columns",
          "input": false
        },
        {
          "columns": [
            {
              "components": [
                {
                  "label": "Thesis subject",
                  "widget": "choicesjs",
                  "dataSrc": "url",
                  "defaultValue": "",
                  "labelPosition": "top",
                  "customConditional": "show = !!(data.department && data.department.id)",
                  "data": {
                    "values": [],
                    "url": "ThesisSubjects?$top=-1&$filter=department eq '{{data.department.id}}'",
                    "headers": []
                  },
                  "lazyLoad": true,
                  "searchEnabled": false,
                  "validate": {
                    "required": false
                  },
                  "template": "{{ item.name }}",
                  "key": "subject",
                  "type": "select",
                  "dataType": "object",
                  "idPath": "id",
                  "selectValues": "value",
                  "input": true,
                  "description": "Set the thesis subject"
                }
              ],
              "width": 4
            }
          ],
          "customClass": "text-dark",
          "type": "columns",
          "input": false
        }
      ]
    }
  ]
}